<svg xmlns="http://www.w3.org/2000/svg" viewBox="0 0 128 128">
    <g>
        <path d=" M 23 73 L 114 0 L 81 59.527 L 106 59.527 L 27.833 128 L 59 73 L 23 73 Z " fill="rgb(103,103,103)" />
    </g>
</svg>