<svg viewBox="0 0 128 128" xmlns="http://www.w3.org/2000/svg">
    <g>
        <path
            d=" M 34 0 Q 34 9.756 34 16 Q 16 16.063 16 34.387 L 16 34.387 L 0 34.387 L 0 46.387 L 16 46.387 L 16 58.387 L 0 58.387 L 0 70.177 L 16 70.177 L 16 82.177 L 0 82.177 L 0 94.177 Q 9.756 94.177 16 94.177 Q 15.99 111.927 34 112 L 34 128 L 46 128 L 46 112 L 58 112 L 58 128 L 70 128 L 70 112 L 82 112 L 82 128 L 94 128 L 94 112 Q 112.031 112.083 112 94.177 Q 118.244 94.177 128 94.177 L 128 82.177 L 112 82.177 L 112 70.177 L 128 70.177 L 128 58.387 L 112 58.387 L 112 46.51 L 128 46.51 L 128 34.51 Q 118.244 34.51 112 34.51 Q 112.045 16.08 94 16 L 94 0 L 82 0 L 82 16 L 70 16 L 70 0 L 58 0 L 58 16 L 46 16 L 46 0 L 34 0 Z "
            fill="rgb(103,103,103)" />
        <text style="font-weight:bold;font-size:64pt;font-family:Arial" text-anchor="middle" fill="rgb(255,255,255)"
            x="50%" y="1.125em">
            V
        </text>
    </g>
</svg>